02_Windows_10/07_synergy/01_synergy_install_configure.md -> 02_Windows_10/06_synergy/01_synergy_install_configure.md
02_Windows_10/06_time/01_internet_time_sync.md -> 02_Windows_10/07_time/01_internet_time_sync.md
02_Windows_10/06_time/91.png -> 02_Windows_10/07_time/91.png
02_Windows_10/06_time/92.png -> 02_Windows_10/07_time/92.png
